\relax 
\providecommand\hyper@newdestlabel[2]{}
\providecommand\HyperFirstAtBeginDocument{\AtBeginDocument}
\HyperFirstAtBeginDocument{\ifx\hyper@anchor\@undefined
\global\let\oldcontentsline\contentsline
\gdef\contentsline#1#2#3#4{\oldcontentsline{#1}{#2}{#3}}
\global\let\oldnewlabel\newlabel
\gdef\newlabel#1#2{\newlabelxx{#1}#2}
\gdef\newlabelxx#1#2#3#4#5#6{\oldnewlabel{#1}{{#2}{#3}}}
\AtEndDocument{\ifx\hyper@anchor\@undefined
\let\contentsline\oldcontentsline
\let\newlabel\oldnewlabel
\fi}
\fi}
\global\let\hyper@last\relax 
\gdef\HyperFirstAtBeginDocument#1{#1}
\providecommand*\HyPL@Entry[1]{}
\HyPL@Entry{0<</S/D>>}
\@writefile{toc}{\contentsline {section}{\numberline {1}Education}{1}{section.1}\protected@file@percent }
\@writefile{toc}{\contentsline {subsection}{\numberline {1.1}Amrita School of}{1}{subsection.1.1}\protected@file@percent }
\@writefile{toc}{\contentsline {subsection}{\numberline {1.2}Engineering}{1}{subsection.1.2}\protected@file@percent }
\@writefile{toc}{\contentsline {section}{\numberline {2}Links}{1}{section.2}\protected@file@percent }
\@writefile{toc}{\contentsline {section}{\numberline {3}Areas of Interest}{1}{section.3}\protected@file@percent }
\@writefile{toc}{\contentsline {section}{\numberline {4}Skills}{1}{section.4}\protected@file@percent }
\@writefile{toc}{\contentsline {subsection}{\numberline {4.1}Languages and}{1}{subsection.4.1}\protected@file@percent }
\@writefile{toc}{\contentsline {subsection}{\numberline {4.2}Technologies}{1}{subsection.4.2}\protected@file@percent }
\@writefile{toc}{\contentsline {section}{\numberline {5}Work experience}{1}{section.5}\protected@file@percent }
\@writefile{toc}{\contentsline {section}{\numberline {6}Internship}{1}{section.6}\protected@file@percent }
\@writefile{toc}{\contentsline {section}{\numberline {7}Selected Projects}{1}{section.7}\protected@file@percent }
\@writefile{toc}{\contentsline {section}{\numberline {8}FOSS Contributions}{1}{section.8}\protected@file@percent }
\@writefile{toc}{\contentsline {section}{\numberline {9}Conferences}{1}{section.9}\protected@file@percent }
\@writefile{toc}{\contentsline {section}{\numberline {10}Miscellaneous}{1}{section.10}\protected@file@percent }
